{
  "hpitem1": {
    "max": 25,
    "title": "HP%",
    "subType": 1,
    "item": 7550,
    "min": 0,
    "on": false
  },
  "castle": {
    "enabled": false,
    "id": 2983,
    "around": false
  },
  "Spell2": "",
  "Spell4": "",
  "foodItems": [
    {
      "id": 3582,
      "count": 1
    },
    {
      "id": 3577,
      "count": 1
    },
    {
      "id": 3725,
      "count": 1
    }
  ],
  "isUsing": false,
  "hpitem2": {
    "max": 95,
    "title": "HP%",
    "subType": 1,
    "item": 3160,
    "min": 0,
    "on": true
  },
  "healing2": {
    "max": 50,
    "title": "HP%",
    "on": false,
    "min": 0,
    "text": "exura vita"
  },
  "eringEquiper": {
    "max": 90,
    "min": 60,
    "bpId": 2854
  },
  "containersReset": false,
  "playerList": {
    "enemyList": [

    ],
    "outfits": false,
    "groupMembers": false,
    "marks": false,
    "friendList": [

    ]
  },
  "customSpell": "",
  "Spell3": "",
  "containersClosed": false,
  "comboLeader": "Name",
  "antiParalyze": "utani hur",
  "depositDone": false,
  "buySuppliesCap": 0,
  "scythe": 9596,
  "buffSpell": "",
  "inboxContainerOpen": false,
  "lootItemsCount": 0,
  "imortalSpell": "Imortal",
  "ConditionPanel": {
    "cureBurn": false,
    "curseCost": 80,
    "electrifyCost": 22,
    "ignoreInPz": true,
    "bleedCost": 45,
    "cureCurse": false,
    "holdHaste": false,
    "curePosion": false,
    "hasteSpell": "utani hur",
    "uturaType": "",
    "burnCost": 30,
    "cureBleed": false,
    "holdUtura": false,
    "paralyseSpell": "utani hur",
    "hasteCost": 40,
    "cureParalyse": false,
    "poisonCost": 20,
    "utamoCost": 40,
    "enabled": false,
    "uturaCost": 100,
    "cureElectrify": false,
    "holdUtamo": false,
    "paralyseCost": 40,
    "utanaCost": 440,
    "holdUtana": false,
    "stopHaste": false
  },
  "Spell1": "exori",
  "manaitem1": {
    "max": 78,
    "title": "MP%",
    "subType": 0,
    "item": 0,
    "min": 0,
    "on": false
  },
  "advancedFriendHealer": {
    "itemHeal": true,
    "minFriendHp": 40,
    "id": 3160,
    "spellName": "exura sio",
    "distance": 8,
    "spellHeal": true,
    "minMana": 60
  },
  "manaShield": "utamo vita",
  "autoTradeMessage": "I'm using OTClientV8!",
  "stopSearch": false,
  "reflectSpell": "reflect",
  "autoEquip": [
    {
      "item1": 0,
      "title": "Auto Equip",
      "item2": 0,
      "on": false,
      "slot": 9
    },
    {
      "item1": 0,
      "title": "Auto Equip",
      "item2": 0,
      "on": false,
      "slot": 0
    },
    {
      "item1": 0,
      "title": "Auto Equip",
      "item2": 0,
      "on": false,
      "slot": 0
    },
    {
      "item1": 0,
      "title": "Auto Equip",
      "item2": 0,
      "on": false,
      "slot": 0
    }
  ],
  "ssaEquiper": {
    "max": 86,
    "min": 60,
    "bpId": 2854
  },
  "comboRune": "RuneID",
  "machete": 9596,
  "antiPushPanel": {
    "items": [
      3031,
      3035,
      0,
      0,
      0
    ],
    "enabled": false
  },
  "manaTrain": {
    "max": 100,
    "title": "MP%",
    "on": false,
    "min": 80,
    "text": "utevo lux"
  },
  "lootStatus": "",
  "trapSpell": "Trap",
  "lootContainerOpen": false,
  "trashItems": [

  ],
  "sellAllCap": 0,
  "comboType": "ue",
  "supplyRetries": 0,
  "ingame_macros": "setDefaultTab(\"Main\")\n\naddSeparator()\n\nUI.Label(\"Combo ATACK\"):setColor(\"white\")\n\nUI.TextEdit(storage.customSpell or \"exura\", function(widget, newSpell)\n storage.customSpell = newSpell\nend)\n\n\n\nmacro(200, \"AUTO - Custom\", function()\n if g_game:isAttacking() then\n  say(storage.customSpell)\n  delay(50)\n end\nend)\n\n\n\n\n\n\n-- toggle macro using icon\nlocal sdTarget = macro(50, \"SD Target\", \"Home\", function() -- sd target macro\n  local target = g_game.getAttackingCreature()\n  if target then\n    useWith(3155, target)\n  end\nend)\n\n\n\n\n\n\n-- toggle macro using icon\nlocal sdTarget = macro(50, \"Paralyze\", function() \n  local target = g_game.getAttackingCreature()\n  if target then\n    useWith(3165, target)\n  end\nend)\n\n\n\n\n\n\nmacro(500, \"Buff\", function()\nsaySpell(\"exana mas ina\", 200)\ndelay(1000)\nend)\n\n\n\n\n\n\n\n\n\naddSeparator()  \n\nlocal outfit = {\n  head = 0,\n  body = 1,\n  legs = 2,\n  feet = 3,\n  type = 143, -- outfit id\n  auxType = 0,\n  addons = 3, -- 1, 2, or 3 for all\n  mount = 0, -- mount id\n}\n\nmacro(100, \"RainbowOutfit\",  function()\n  outfit.head = (outfit.head + 1) % 133;\n  outfit.body = (outfit.body + 1) % 133;\n  outfit.legs = (outfit.legs + 1) % 133;\n  outfit.feet = (outfit.feet + 1) % 133;\n  setOutfit(outfit);\nend)      \n\n\n\n\n\n\nfunction eringEquiper(parent)\n  panelName = \"eringEquiper\"\n  if not parent then\n    parent = panel\n  end\n \n  local ui = setupUI([[\nPanel\n  height: 50\n  margin-top: 2\n\n  BotItem\n    id: bpId\n    anchors.left: parent.left\n    anchors.top: parent.top\n\n  SmallBotSwitch\n    id: switch\n    anchors.left: bpId.right\n    anchors.right: parent.right\n    anchors.top: parent.top\n    text-align: center\n    text: Equip Energy Ring\n    margin-left: 3\n    margin-right: 3\n\n  BotLabel\n    id: title\n    anchors.left: bpId.right\n    anchors.right: parent.right\n    anchors.top: bpId.verticalCenter\n    text-align: center\n\n  HorizontalScrollBar\n    id: scroll1\n    anchors.left: parent.left\n    anchors.right: parent.horizontalCenter\n    anchors.top: bpId.bottom\n    margin-right: 2\n    margin-top: 2\n    minimum: 0\n    maximum: 100\n    step: 1\n    \n  HorizontalScrollBar\n    id: scroll2\n    anchors.left: parent.horizontalCenter\n    anchors.right: parent.right\n    anchors.top: prev.top\n    margin-left: 2\n    minimum: 0\n    maximum: 100\n    step: 1    \n  ]], parent)\n  ui:setId(panelName)\n  if not storage[panelName] or not storage[panelName].bpId then\n    storage[panelName] = {\n      min = 60,\n      max = 90,\n      bpId = 2854\n    }\n  end\n  \n  ui.switch:setOn(storage[panelName].enabled)\n  ui.switch.onClick = function(widget)\n    storage[panelName].enabled = not storage[panelName].enabled\n    widget:setOn(storage[panelName].enabled)\n  end\n\n  local updateText = function()\n    ui.title:setText(\"\" .. storage[panelName].min .. \"% <= hp >= \" .. storage[panelName].max .. \"%\")  \n  end\n \n  ui.scroll1.onValueChange = function(scroll, value)\n    storage[panelName].min = value\n    updateText()\n  end\n  ui.scroll2.onValueChange = function(scroll, value)\n    storage[panelName].max = value\n    updateText()\n  end\n  ui.bpId.onItemChange = function(widget)\n    storage[panelName].bpId = widget:getItemId()\n  end\n \n  ui.scroll1:setValue(storage[panelName].min)\n  ui.scroll2:setValue(storage[panelName].max)\n  ui.bpId:setItemId(storage[panelName].bpId)\n\n  local defaultAmulet = nil\n  macro(100, function()\n    if not storage[panelName].enabled then\n      return\n    end\n    if hppercent() <= storage[panelName].min and (getFinger() == nil or (getFinger():getId() ~= 3051 and getFinger():getId() ~= 3088)) then\n      if getFinger() ~= nil and defaultRing == nil then\n        defaultRing = getFinger()\n      end\n      ring = findItem(3051)\n      findRing = false\n      if ring then\n        moveToSlot(ring, SlotFinger)\n        delay(200)\n      end\n\n      if ring == nil then\n        if defaultRing ~= nil or (getFinger() ~= nil and getFinger():getId() ~= defaultRing:getId()) then\n          ring = findItem(defaultRing:getId())\n          if ring then\n            moveToSlot(ring, SlotFinger)\n          end\n        end\n        findRing = true\n      end\n\n      if findRing then\n        isAlreadyOpen = false\n        for i, container in pairs(getContainers()) do\n          containerItem = container:getContainerItem():getId()\n          if containerItem == storage[panelName].bpId then\n            isAlreadyOpen = true\n            for _, item in ipairs(container:getItems()) do\n              if item:isContainer() and item:getId() == storage[panelName].bpId then\n                g_game.open(item, container)\n                delay(300)\n                return\n              end\n            end\n          end\n        end\n        if not isAlreadyOpen then\n          for i, container in pairs(getContainers()) do\n            for _, item in ipairs(container:getItems()) do\n              if item:isContainer() and item:getId() == storage[panelName].bpId then\n                g_game.open(item)\n                delay(400)\n                return\n              end\n            end\n          end\n        end\n      end\n    elseif hppercent() >= storage[panelName].max and defaultRing ~= nil then\n      if getFinger() == nil or (getFinger():getId() ~= defaultRing:getId()) then\n        ring = findItem(defaultRing:getId())\n        if ring then\n          moveToSlot(ring, SlotFinger)\n        end\n      end\n    end\n  end)\nend\neringEquiper()\n\n\n\n\n\nfunction ssaEquiper(parent)\n  panelName = \"ssaEquiper\"\n  if not parent then\n    parent = panel\n  end\n \n  local ui = setupUI([[\nPanel\n  height: 50\n  margin-top: 2\n\n  BotItem\n    id: bpId\n    anchors.left: parent.left\n    anchors.top: parent.top\n\n  SmallBotSwitch\n    id: switch\n    anchors.left: bpId.right\n    anchors.right: parent.right\n    anchors.top: parent.top\n    text-align: center\n    text: Equip SSA\n    margin-left: 3\n    margin-right: 3\n\n  BotLabel\n    id: title\n    anchors.left: bpId.right\n    anchors.right: parent.right\n    anchors.top: bpId.verticalCenter\n    text-align: center\n\n  HorizontalScrollBar\n    id: scroll1\n    anchors.left: parent.left\n    anchors.right: parent.horizontalCenter\n    anchors.top: bpId.bottom\n    margin-right: 2\n    margin-top: 2\n    minimum: 0\n    maximum: 100\n    step: 1\n    \n  HorizontalScrollBar\n    id: scroll2\n    anchors.left: parent.horizontalCenter\n    anchors.right: parent.right\n    anchors.top: prev.top\n    margin-left: 2\n    minimum: 0\n    maximum: 100\n    step: 1    \n  ]], parent)\n  ui:setId(panelName)\n  if not storage[panelName] or not storage[panelName].bpId then\n    storage[panelName] = {\n      min = 60,\n      max = 90,\n      bpId = 2854\n    }\n  end\n  \n  ui.switch:setOn(storage[panelName].enabled)\n  ui.switch.onClick = function(widget)\n    storage[panelName].enabled = not storage[panelName].enabled\n    widget:setOn(storage[panelName].enabled)\n  end\n\n  local updateText = function()\n    ui.title:setText(\"\" .. storage[panelName].min .. \"% <= hp >= \" .. storage[panelName].max .. \"%\")  \n  end\n \n  ui.scroll1.onValueChange = function(scroll, value)\n    storage[panelName].min = value\n    updateText()\n  end\n  ui.scroll2.onValueChange = function(scroll, value)\n    storage[panelName].max = value\n    updateText()\n  end\n  ui.bpId.onItemChange = function(widget)\n    storage[panelName].bpId = widget:getItemId()\n  end\n \n  ui.scroll1:setValue(storage[panelName].min)\n  ui.scroll2:setValue(storage[panelName].max)\n  ui.bpId:setItemId(storage[panelName].bpId)\n\n  local defaultAmulet = nil\n  macro(100, function()\n    if not storage[panelName].enabled then\n      return\n    end\n    if hppercent() <= storage[panelName].min and (getNeck() == nil or getNeck():getId() ~= 3081) then\n      if getNeck() ~= nil and defaultAmulet == nil then\n        defaultAmulet = getNeck():getId()\n      end\n      for _, container in pairs(getContainers()) do\n        for _, item in ipairs(container:getItems()) do\n          containerItem = container:getContainerItem():getId()\n          if containerItem == storage[panelName].bpId then\n            if item:getId() == 3081 then\n              if container:getSize() == 0 and getNeck() ~= nil  then\n                g_game.moveToParentContainer(item, item:getCount())\n                delay(300)\n                return\n              end\n              moveToSlot(item, SlotNeck)\n              delay(200)\n              return\n            end\n          end\n        end\n      end\n      if defaultAmulet ~= nil or (getNeck() ~= nil and getNeck():getId() ~= defaultAmulet) then\n        amulet = findItem(defaultAmulet)\n        if amulet then\n          moveToSlot(amulet, SlotNeck)\n        end\n      end\n      isAlreadyOpen = false\n      for i, container in pairs(getContainers()) do\n        containerItem = container:getContainerItem():getId()\n        if containerItem == storage[panelName].bpId then\n          isAlreadyOpen = true\n          for _, item in ipairs(container:getItems()) do\n            if item:isContainer() and item:getId() == storage[panelName].bpId then\n              g_game.open(item, container)\n              delay(200)\n              return\n            end\n          end\n        end\n      end\n      if not isAlreadyOpen then\n        for i, container in pairs(getContainers()) do\n          for _, item in ipairs(container:getItems()) do\n            if item:isContainer() and item:getId() == storage[panelName].bpId then\n              g_game.open(item)\n              delay(400)\n              return\n            end\n          end\n        end\n      end\n    elseif hppercent() >= storage[panelName].max and defaultAmulet ~= nil then\n      if getNeck() == nil or (getNeck() ~= nil and getNeck():getId() ~= defaultAmulet) then\n        amulet = findItem(defaultAmulet)\n        if amulet then\n          moveToSlot(amulet, SlotNeck)\n        end\n      end\n    end\n  end)\nend\nssaEquiper()\n\n\n\ncontainers = getContainers()\nif #containers < 1 and containers[0] == nil then\n  bpItem = getBack()\n  if bpItem ~= nil then\n    g_game.open(bpItem)\n  end\nend\n\n\n\n\n\n\n\n\n\nlocal tools\n\nmacro(1, \"Dance\", function()\n\n    turn(math.random(0, 3)) -- turn to a random direction.\n\n end, warTab)\n\n\n\n\n\n\n\n\n\n\n\nmacro(1, \"Others\", function() \nlocal battlelist = getSpectators();\nlocal closest = 10\nlocal lowesthpc = 101\nfor key, val in pairs(battlelist) do\nif val:isMonster() then\nif getDistanceBetween(player:getPosition(), val:getPosition()) <= closest then\nclosest = getDistanceBetween(player:getPosition(), val:getPosition())\nif val:getHealthPercent() < lowesthpc then\nlowesthpc = val:getHealthPercent()\nend\nend\nend\nend\nfor key, val in pairs(battlelist) do\nif val:isMonster() then\nif getDistanceBetween(player:getPosition(), val:getPosition()) <= closest then\nif g_game.getAttackingCreature() ~= val and val:getHealthPercent() <= lowesthpc then \ng_game.attack(val)\ndelay(1)\nbreak\nend\nend\nend\nend\nend)\n\n\n\n\n\n\n\n\n\nlocal toFollow = \"Player2\"\nlocal toFollowPos = {}\n\nlocal followMacro = macro(20, \"follow target\", function()\n  local target = getCreatureByName(toFollow)\n  if target then\n    local tpos = target:getPosition()\n    toFollowPos[tpos.z] = tpos\n  end\n  if player:isWalking() then return end\n  local p = toFollowPos[posz()]\n  if not p then return end\n  if autoWalk(p, 20, {ignoreNonPathable=true, precision=1}) then\n    delay(100)\n  end\nend)\n\nonCreaturePositionChange(function(creature, oldPos, newPos)\n  if creature:getName() == toFollow then\n    toFollowPos[newPos.z] = newPos\n  end\nend)\n\n\n\nlocal manaId = 237 local manaPercent = 70 macro(1000, \"faster mana potting hunt\",  function()   if (manapercent() <= manaPercent) then     g_game.useInventoryItem(237, thing)   end end)  \n\n\n\n\n\n\n\n\n\n\n\n\n\n\n\n\n\n",
  "comboUE": "Spell",
  "defaultTabCombo": "Combo",
  "Spell5": "",
  "manaitem2": {
    "max": 60,
    "title": "MP%",
    "subType": 1,
    "item": 6568,
    "min": 0,
    "on": false
  },
  "_configs": {
    "targetbot_configs": {
      "selected": "config_name",
      "enabled": false
    },
    "cavebot_configs": {
      "selected": "dragon_em_baixo",
      "enabled": false
    }
  },
  "healing1": {
    "max": 99,
    "title": "HP%",
    "on": false,
    "min": 0,
    "text": "EXURA"
  },
  "summonSpell": "Summons",
  "_macros": {
    "": false,
    "Trap's": false,
    "Summon's": false,
    "Stack items": false,
    "Click ReUse": false,
    "Combos": false,
    "Reflect": false,
    "Others": false,
    "Stake Bodies": false,
    "Pull Nearby Items": false,
    "Buff's": false,
    "anti paralyze": true,
    "drop items": false,
    "SD Target": false,
    "eat food": true,
    "haste": true,
    "RainbowOutfit": false,
    "faster mana potting hunt": false,
    "AUTO - Custom": false,
    "Exchange money": true,
    "Drop Items": false,
    "Imortal": false,
    "Send message on trade": true
  },
  "accessKey": "Access Key",
  "pushmax": {
    "pushMaxRuneId": 3188,
    "mwallBlockId": 2128,
    "pushDelay": 1060,
    "enabled": false,
    "pushMaxKey": "PageUp"
  },
  "dropItems": [

  ],
  "currentStack": 0,
  "alarms": {
    "playerDetected": false,
    "creatureDetected": false,
    "playerDetectedLogout": false,
    "playerAttack": false,
    "manaBelow": false,
    "healthValue": 40,
    "healthBelow": false,
    "enabled": false,
    "manaValue": 50,
    "privateMessage": false
  },
  "posCheckRetries": 0,
  "hasteSpell": "utani hur",
  "rope": 9596,
  "shovel": 9596,
  "sendHotkey": "F10"
}